Forecast US Demand for Natural Gas
…
Code

ts_obj <- df |> 
            dplyr::select(date, value) |>
            dplyr::mutate(index = tsibble::yearmonth(date)) |>
            tsibble::as_tsibble(index = index) 

ts_obj

# A tsibble: 607 x 3 [1M]
   date        value    index
   <date>      <int>    <mth>
 1 1973-01-01 843900 1973 Jan
 2 1973-02-01 747331 1973 Feb
 3 1973-03-01 648504 1973 Mar
 4 1973-04-01 465867 1973 Apr
 5 1973-05-01 326313 1973 May
 6 1973-06-01 207172 1973 Jun
 7 1973-07-01 150349 1973 Jul
 8 1973-08-01 142498 1973 Aug
 9 1973-09-01 159378 1973 Sep
10 1973-10-01 205013 1973 Oct
# ℹ 597 more rows
…
test <- ts_obj |>
dplyr::filter(date >= split_date)

fit <- train |>
    fabletools::model(ets = fable::ETS(value),
                      arima = fable::ARIMA(value),
                      tslm = fable::TSLM(value ~ trend() + season()),
                      naive_s = fable::SNAIVE(value), 
                      tslm_arima = fable::ARIMA(value ~ trend() + season()))

fc <- fit |> fabletools::forecast(h = nrow(test)) 

fc

# A fable: 215 x 4 [1M]
# Key:     .model [5]
   .model    index              value   .mean
   <chr>     <mth>             <dist>   <dbl>
 1 ets    2020 Jan N(954599, 7.1e+09) 954599.
 2 ets    2020 Feb N(761540, 4.7e+09) 761540.
 3 ets    2020 Mar N(637420, 3.4e+09) 637420.
 4 ets    2020 Apr N(354641, 1.1e+09) 354641.
 5 ets    2020 May  N(2e+05, 3.7e+08) 200053.
 6 ets    2020 Jun N(129960, 1.6e+08) 129960.
 7 ets    2020 Jul N(113888, 1.3e+08) 113888.
 8 ets    2020 Aug N(108033, 1.2e+08) 108033.
 9 ets    2020 Sep N(119478, 1.5e+08) 119478.
10 ets    2020 Oct   N(235637, 6e+08) 235637.
# ℹ 205 more rows
…
h <- 12 * 5

fit <- ts_obj |>
    fabletools::model(ets = fable::ETS(value),
                      arima = fable::ARIMA(value),
                      tslm = fable::TSLM(value ~ trend() + season()),
                      naive_s = fable::SNAIVE(value), 
                      tslm_arima = fable::ARIMA(value ~ trend() + season()))

fc <- fit |> fabletools::forecast(h = h)

fc

# A fable: 300 x 4 [1M]
# Key:     .model [5]
   .model    index              value   .mean
   <chr>     <mth>             <dist>   <dbl>
 1 ets    2023 Aug  N(1e+05, 8.5e+07) 103463.
 2 ets    2023 Sep N(115556, 1.1e+08) 115556.
 3 ets    2023 Oct N(223603, 4.3e+08) 223603.
 4 ets    2023 Nov N(492420, 2.1e+09) 492420.
 5 ets    2023 Dec N(756015, 5.2e+09) 756015.
 6 ets    2024 Jan N(875970, 7.2e+09) 875970.
 7 ets    2024 Feb N(748084, 5.5e+09) 748084.
 8 ets    2024 Mar  N(6e+05, 3.6e+09) 596362.
 9 ets    2024 Apr N(350946, 1.3e+09) 350946.
10 ets    2024 May  N(2e+05, 4.4e+08) 202157.
# ℹ 290 more rows
…
